{
  "collaborative": false,
  "description": "A new shade of Country. Cover: Remembering Luke Bell",
  "external_urls": {
    "spotify": "https://open.spotify.com/playlist/37i9dQZF1DWUgBy0IJPlHq"
  },
  "followers": {
    "href": null,
    "total": 394679
  },
  "href": "https://api.spotify.com/v1/playlists/37i9dQZF1DWUgBy0IJPlHq",
  "id": "37i9dQZF1DWUgBy0IJPlHq",
  "images": [
    {
      "height": null,
      "url": "https://i.scdn.co/image/ab67706f0000000378bee753be2627299be36abf",
      "width": null
    }
  ],
  "name": "Indigo",
  "owner": {
    "display_name": "Spotify",
    "external_urls": {
      "spotify": "https://open.spotify.com/user/spotify"
    },
    "href": "https://api.spotify.com/v1/users/spotify",
    "id": "spotify",
    "type": "user",
    "uri": "spotify:user:spotify"
  },
  "primary_color": "#FFFFFF",
  "public": true,
  "snapshot_id": "MTY2MjA5MTIwMCwwMDAwMDAwMGQxYWIxODc1MWU2NTVhYjQzZWE4MjEzYmM1ZWE2YmUx",
  "tracks": {
    "href": "https://api.spotify.com/v1/playlists/37i9dQZF1DWUgBy0IJPlHq/tracks?offset=0&limit=100",
    "items": [
      {
        "added_at": "2022-09-02T04:00:00Z",
        "added_by": {
          "external_urls": {
            "spotify": "https://open.spotify.com/user/"
          },
          "href": "https://api.spotify.com/v1/users/",
          "id": "",
          "type": "user",
          "uri": "spotify:user:"
        },
        "is_local": false,
        "primary_color": null,
        "track": {
          "album": {
            "album_type": "album",
            "artists": [
              {
                "external_urls": {
                  "spotify": "https://open.spotify.com/artist/4D3lmUAeXE2SMsOKd2B8XQ"
                },
                "href": "https://api.spotify.com/v1/artists/4D3lmUAeXE2SMsOKd2B8XQ",
                "id": "4D3lmUAeXE2SMsOKd2B8XQ",
                "name": "Luke Bell",
                "type": "artist",
                "uri": "spotify:artist:4D3lmUAeXE2SMsOKd2B8XQ"
              }
            ],
            "available_markets": [
              "AD",
              "AL",
              "AT"
            ],
            "external_urls": {
              "spotify": "https://open.spotify.com/album/5gtzbumKYEG1Uz4BvB8hbj"
            },
            "href": "https://api.spotify.com/v1/albums/5gtzbumKYEG1Uz4BvB8hbj",
            "id": "5gtzbumKYEG1Uz4BvB8hbj",
            "images": [
              {
                "height": 640,
                "url": "https://i.scdn.co/image/ab67616d0000b273a72593c71ba19a472cd2e281",
                "width": 640
              },
              {
                "height": 300,
                "url": "https://i.scdn.co/image/ab67616d00001e02a72593c71ba19a472cd2e281",
                "width": 300
              },
              {
                "height": 64,
                "url": "https://i.scdn.co/image/ab67616d00004851a72593c71ba19a472cd2e281",
                "width": 64
              }
            ],
            "name": "Luke Bell",
            "release_date": "2016-06-17",
            "release_date_precision": "day",
            "total_tracks": 10,
            "type": "album",
            "uri": "spotify:album:5gtzbumKYEG1Uz4BvB8hbj"
          },
          "artists": [
            {
              "external_urls": {
                "spotify": "https://open.spotify.com/artist/4D3lmUAeXE2SMsOKd2B8XQ"
              },
              "href": "https://api.spotify.com/v1/artists/4D3lmUAeXE2SMsOKd2B8XQ",
              "id": "4D3lmUAeXE2SMsOKd2B8XQ",
              "name": "Luke Bell",
              "type": "artist",
              "uri": "spotify:artist:4D3lmUAeXE2SMsOKd2B8XQ"
            }
          ],
          "available_markets": [
            "AD",
            "AL",
            "AT"
          ],
          "disc_number": 1,
          "duration_ms": 209826,
          "episode": false,
          "explicit": false,
          "external_ids": {
            "isrc": "QZ3Q61600003"
          },
          "external_urls": {
            "spotify": "https://open.spotify.com/track/5FBjLI91XAAfkJIObf6lvV"
          },
          "href": "https://api.spotify.com/v1/tracks/5FBjLI91XAAfkJIObf6lvV",
          "id": "5FBjLI91XAAfkJIObf6lvV",
          "is_local": false,
          "name": "Where Ya Been?",
          "popularity": 49,
          "preview_url": "https://p.scdn.co/mp3-preview/d325cf26997db283021669e273cab22b581f1af5?cid=ee8a5eeaddd44049b1f12be9f976cc79",
          "track": true,
          "track_number": 3,
          "type": "track",
          "uri": "spotify:track:5FBjLI91XAAfkJIObf6lvV"
        },
        "video_thumbnail": {
          "url": null
        }
      },
      {
        "added_at": "2022-09-02T04:00:00Z",
        "added_by": {
          "external_urls": {
            "spotify": "https://open.spotify.com/user/"
          },
          "href": "https://api.spotify.com/v1/users/",
          "id": "",
          "type": "user",
          "uri": "spotify:user:"
        },
        "is_local": false,
        "primary_color": null,
        "track": {
          "album": {
            "album_type": "single",
            "artists": [
              {
                "external_urls": {
                  "spotify": "https://open.spotify.com/artist/1vxqrtPBBQWCuoAcJqVCph"
                },
                "href": "https://api.spotify.com/v1/artists/1vxqrtPBBQWCuoAcJqVCph",
                "id": "1vxqrtPBBQWCuoAcJqVCph",
                "name": "Plains",
                "type": "artist",
                "uri": "spotify:artist:1vxqrtPBBQWCuoAcJqVCph"
              },
              {
                "external_urls": {
                  "spotify": "https://open.spotify.com/artist/5IWCU0V9evBlW4gIeGY4zF"
                },
                "href": "https://api.spotify.com/v1/artists/5IWCU0V9evBlW4gIeGY4zF",
                "id": "5IWCU0V9evBlW4gIeGY4zF",
                "name": "Waxahatchee",
                "type": "artist",
                "uri": "spotify:artist:5IWCU0V9evBlW4gIeGY4zF"
              },
              {
                "external_urls": {
                  "spotify": "https://open.spotify.com/artist/784kOgkd1H6jU4KgPMYHi9"
                },
                "href": "https://api.spotify.com/v1/artists/784kOgkd1H6jU4KgPMYHi9",
                "id": "784kOgkd1H6jU4KgPMYHi9",
                "name": "Jess Williamson",
                "type": "artist",
                "uri": "spotify:artist:784kOgkd1H6jU4KgPMYHi9"
              }
            ],
            "available_markets": [
              "AD",
              "AE",
              "AL"
            ],
            "external_urls": {
              "spotify": "https://open.spotify.com/album/5IQl0bM8GiALIa6BtxMHRf"
            },
            "href": "https://api.spotify.com/v1/albums/5IQl0bM8GiALIa6BtxMHRf",
            "id": "5IQl0bM8GiALIa6BtxMHRf",
            "images": [
              {
                "height": 640,
                "url": "https://i.scdn.co/image/ab67616d0000b273cf5e6f83134577251a695cae",
                "width": 640
              },
              {
                "height": 300,
                "url": "https://i.scdn.co/image/ab67616d00001e02cf5e6f83134577251a695cae",
                "width": 300
              },
              {
                "height": 64,
                "url": "https://i.scdn.co/image/ab67616d00004851cf5e6f83134577251a695cae",
                "width": 64
              }
            ],
            "name": "Abilene",
            "release_date": "2022-08-30",
            "release_date_precision": "day",
            "total_tracks": 2,
            "type": "album",
            "uri": "spotify:album:5IQl0bM8GiALIa6BtxMHRf"
          },
          "artists": [
            {
              "external_urls": {
                "spotify": "https://open.spotify.com/artist/1vxqrtPBBQWCuoAcJqVCph"
              },
              "href": "https://api.spotify.com/v1/artists/1vxqrtPBBQWCuoAcJqVCph",
              "id": "1vxqrtPBBQWCuoAcJqVCph",
              "name": "Plains",
              "type": "artist",
              "uri": "spotify:artist:1vxqrtPBBQWCuoAcJqVCph"
            },
            {
              "external_urls": {
                "spotify": "https://open.spotify.com/artist/5IWCU0V9evBlW4gIeGY4zF"
              },
              "href": "https://api.spotify.com/v1/artists/5IWCU0V9evBlW4gIeGY4zF",
              "id": "5IWCU0V9evBlW4gIeGY4zF",
              "name": "Waxahatchee",
              "type": "artist",
              "uri": "spotify:artist:5IWCU0V9evBlW4gIeGY4zF"
            },
            {
              "external_urls": {
                "spotify": "https://open.spotify.com/artist/784kOgkd1H6jU4KgPMYHi9"
              },
              "href": "https://api.spotify.com/v1/artists/784kOgkd1H6jU4KgPMYHi9",
              "id": "784kOgkd1H6jU4KgPMYHi9",
              "name": "Jess Williamson",
              "type": "artist",
              "uri": "spotify:artist:784kOgkd1H6jU4KgPMYHi9"
            }
          ],
          "available_markets": [
            "AD",
            "AE",
            "AL"
          ],
          "disc_number": 1,
          "duration_ms": 183560,
          "episode": false,
          "explicit": false,
          "external_ids": {
            "isrc": "USEP42216004"
          },
          "external_urls": {
            "spotify": "https://open.spotify.com/track/2xi9KMyT6acK7kDkdpptfN"
          },
          "href": "https://api.spotify.com/v1/tracks/2xi9KMyT6acK7kDkdpptfN",
          "id": "2xi9KMyT6acK7kDkdpptfN",
          "is_local": false,
          "name": "Abilene",
          "popularity": 47,
          "preview_url": "https://p.scdn.co/mp3-preview/3fabdb213a6aee623507b615d78c58fed6ec9395?cid=ee8a5eeaddd44049b1f12be9f976cc79",
          "track": true,
          "track_number": 1,
          "type": "track",
          "uri": "spotify:track:2xi9KMyT6acK7kDkdpptfN"
        },
        "video_thumbnail": {
          "url": null
        }
      },
      {
        "added_at": "2022-08-26T04:00:00Z",
        "added_by": {
          "external_urls": {
            "spotify": "https://open.spotify.com/user/"
          },
          "href": "https://api.spotify.com/v1/users/",
          "id": "",
          "type": "user",
          "uri": "spotify:user:"
        },
        "is_local": false,
        "primary_color": null,
        "track": {
          "album": {
            "album_type": "single",
            "artists": [
              {
                "external_urls": {
                  "spotify": "https://open.spotify.com/artist/7kplJl06UmldxLKseURAYi"
                },
                "href": "https://api.spotify.com/v1/artists/7kplJl06UmldxLKseURAYi",
                "id": "7kplJl06UmldxLKseURAYi",
                "name": "Warren Zeiders",
                "type": "artist",
                "uri": "spotify:artist:7kplJl06UmldxLKseURAYi"
              }
            ],
            "available_markets": [
              "AD",
              "AE",
              "AL"
            ],
            "external_urls": {
              "spotify": "https://open.spotify.com/album/4qngZnFUHmu4I3cGpENpWF"
            },
            "href": "https://api.spotify.com/v1/albums/4qngZnFUHmu4I3cGpENpWF",
            "id": "4qngZnFUHmu4I3cGpENpWF",
            "images": [
              {
                "height": 640,
                "url": "https://i.scdn.co/image/ab67616d0000b273793486a5c535f1695f06b4f9",
                "width": 640
              },
              {
                "height": 300,
                "url": "https://i.scdn.co/image/ab67616d00001e02793486a5c535f1695f06b4f9",
                "width": 300
              },
              {
                "height": 64,
                "url": "https://i.scdn.co/image/ab67616d00004851793486a5c535f1695f06b4f9",
                "width": 64
              }
            ],
            "name": "One Hell of an Angel",
            "release_date": "2022-08-26",
            "release_date_precision": "day",
            "total_tracks": 1,
            "type": "album",
            "uri": "spotify:album:4qngZnFUHmu4I3cGpENpWF"
          },
          "artists": [
            {
              "external_urls": {
                "spotify": "https://open.spotify.com/artist/7kplJl06UmldxLKseURAYi"
              },
              "href": "https://api.spotify.com/v1/artists/7kplJl06UmldxLKseURAYi",
              "id": "7kplJl06UmldxLKseURAYi",
              "name": "Warren Zeiders",
              "type": "artist",
              "uri": "spotify:artist:7kplJl06UmldxLKseURAYi"
            }
          ],
          "available_markets": [
            "AD",
            "AE",
            "AL"
          ],
          "disc_number": 1,
          "duration_ms": 211517,
          "episode": false,
          "explicit": false,
          "external_ids": {
            "isrc": "USWB12202361"
          },
          "external_urls": {
            "spotify": "https://open.spotify.com/track/1SniaPt656Q2RJFOh5QBPK"
          },
          "href": "https://api.spotify.com/v1/tracks/1SniaPt656Q2RJFOh5QBPK",
          "id": "1SniaPt656Q2RJFOh5QBPK",
          "is_local": false,
          "name": "One Hell of an Angel",
          "popularity": 59,
          "preview_url": "https://p.scdn.co/mp3-preview/43d9ea472bb4199d002710bfc8044b9a4109fc72?cid=ee8a5eeaddd44049b1f12be9f976cc79",
          "track": true,
          "track_number": 1,
          "type": "track",
          "uri": "spotify:track:1SniaPt656Q2RJFOh5QBPK"
        },
        "video_thumbnail": {
          "url": null
        }
      }
    ],
    "limit": 100,
    "next": "https://api.spotify.com/v1/playlists/37i9dQZF1DWUgBy0IJPlHq/tracks?offset=100&limit=100",
    "offset": 0,
    "previous": null,
    "total": 131
  },
  "type": "playlist",
  "uri": "spotify:playlist:37i9dQZF1DWUgBy0IJPlHq"
}
